         run       event       nTopo   nIdTracks       nJets      nMuons       nElec       nPhot
      284500    87473001         118         128           4           1           9           7
      284500    87473014          85          79           6           0           9           7
      284500    87473022          38          30           4           0           5           2
      284500    87473032          27          33           4           1           9           2
      284500    87473037          60          43           7           0          10           6
      284500    87473040         101          96           9           0          17           7
      284500    87473051         142         114          12           1          15          21
      284500    87473063          62          76           5           2           6           6
      284500    87473068          26          35           1           1           0           0
      284500    87473075          72          87           6           0           5           5
      284500    87473084          83          86           7           3          15          10
      284500    87473091          43          49           3           0           3           5
      284500    87473096          72          75           3           2           2           3
      284500    87473104          61          66           6           0           6           5
      284500    87473114          93          84           7           2          14           8
      284500    87473121          93         101           6           3          15           7
      284500    87473132          81          59           9           1          10           5
      284500    87473137          81          71           8           3          14           7
      284500    87473144          83          70           7           1           6           8
      284500    87473154          89          88           7           0          10           7
      284500    87473162          52          52           3           0           8           4
      284500    87473167          74          54           6           3          12          13
      284500    87473171          82          71           8           3           4           5
      284500    87473184          74          88           5           2           8           8
      284500    87473192          54          53           4           1           7           5
